<svg width="24" height="24" viewBox="0 0 24 24" xmlns="http://www.w3.org/2000/svg">
<path d="M17.1551 4.50005L23.25 4.50005L23.25 3.00005L17.1551 3.00005C16.9887 2.35605 16.6131 1.78558 16.0873 1.3783C15.5614 0.97101 14.9151 0.75 14.25 0.75C13.5849 0.75 12.9386 0.97101 12.4127 1.3783C11.8869 1.78558 11.5113 2.35605 11.3449 3.00005L0.75 3.00005L0.75 4.50005L11.3449 4.50005C11.5113 5.14405 11.8869 5.71452 12.4127 6.12181C12.9386 6.5291 13.5849 6.75011 14.25 6.75011C14.9151 6.75011 15.5614 6.5291 16.0873 6.12181C16.6131 5.71452 16.9887 5.14405 17.1551 4.50005ZM12.75 3.75005C12.75 3.45338 12.838 3.16337 13.0028 2.9167C13.1676 2.67002 13.4019 2.47777 13.676 2.36423C13.9501 2.2507 14.2517 2.221 14.5426 2.27888C14.8336 2.33675 15.1009 2.47961 15.3107 2.68939C15.5204 2.89917 15.6633 3.16645 15.7212 3.45742C15.7791 3.74839 15.7494 4.04999 15.6358 4.32408C15.5223 4.59817 15.33 4.83244 15.0834 4.99726C14.8367 5.16208 14.5467 5.25005 14.25 5.25005C13.8523 5.24961 13.471 5.09143 13.1898 4.81022C12.9086 4.52901 12.7504 4.14774 12.75 3.75005Z" />
<path d="M10.4051 12.7501L23.25 12.7501L23.25 11.2501L10.4051 11.2501C10.2387 10.6061 9.86312 10.0356 9.33727 9.6283C8.81142 9.22101 8.16513 9 7.5 9C6.83487 9 6.18859 9.22101 5.66273 9.6283C5.13688 10.0356 4.76126 10.6061 4.59492 11.2501L0.75 11.2501L0.75 12.7501L4.59492 12.7501C4.76126 13.3941 5.13688 13.9645 5.66273 14.3718C6.18859 14.7791 6.83487 15.0001 7.5 15.0001C8.16513 15.0001 8.81142 14.7791 9.33727 14.3718C9.86312 13.9645 10.2387 13.3941 10.4051 12.7501ZM6 12.0001C6 11.7034 6.08797 11.4134 6.2528 11.1667C6.41762 10.92 6.65189 10.7278 6.92597 10.6142C7.20006 10.5007 7.50166 10.471 7.79263 10.5289C8.08361 10.5868 8.35088 10.7296 8.56066 10.9394C8.77044 11.1492 8.9133 11.4165 8.97118 11.7074C9.02906 11.9984 8.99935 12.3 8.88582 12.5741C8.77229 12.8482 8.58003 13.0824 8.33336 13.2473C8.08668 13.4121 7.79667 13.5001 7.5 13.5001C7.10231 13.4996 6.72104 13.3414 6.43983 13.0602C6.15863 12.779 6.00045 12.3977 6 12.0001Z" />
<path d="M20.1551 21.0001L23.25 21.0001L23.25 19.5001L20.1551 19.5001C19.9887 18.8561 19.6131 18.2856 19.0873 17.8783C18.5614 17.471 17.9151 17.25 17.25 17.25C16.5849 17.25 15.9386 17.471 15.4127 17.8783C14.8869 18.2856 14.5113 18.8561 14.3449 19.5001L0.75 19.5001L0.75 21.0001L14.3449 21.0001C14.5113 21.6441 14.8869 22.2145 15.4127 22.6218C15.9386 23.0291 16.5849 23.2501 17.25 23.2501C17.9151 23.2501 18.5614 23.0291 19.0873 22.6218C19.6131 22.2145 19.9887 21.6441 20.1551 21.0001ZM15.75 20.2501C15.75 19.9534 15.838 19.6634 16.0028 19.4167C16.1676 19.17 16.4019 18.9778 16.676 18.8642C16.9501 18.7507 17.2517 18.721 17.5426 18.7789C17.8336 18.8368 18.1009 18.9796 18.3107 19.1894C18.5204 19.3992 18.6633 19.6664 18.7212 19.9574C18.7791 20.2484 18.7494 20.55 18.6358 20.8241C18.5223 21.0982 18.33 21.3324 18.0834 21.4973C17.8367 21.6621 17.5467 21.7501 17.25 21.7501C16.8523 21.7496 16.471 21.5914 16.1898 21.3102C15.9086 21.029 15.7504 20.6477 15.75 20.2501Z" />
</svg>
