<svg width="32" height="32" viewBox="0 0 32 32"  xmlns="http://www.w3.org/2000/svg">
<path d="M4 17.3334H5.33333H9.33333V9.33337H16V14.6667H21.3333V20H26.6667V28H4V17.3334ZM21.3333 21.3334V26.6667H25.3333V21.3334H21.3333ZM16 16V26.6667H20V16H16ZM10.6667 10.6667V26.6667H14.6667V10.6667H10.6667ZM5.33333 18.6667V26.6667H9.33333V18.6667H5.33333Z"/>
</svg>
