<svg width="18" height="24" viewBox="0 0 18 24" fill="none" xmlns="http://www.w3.org/2000/svg">
<path d="M2.50172 13.6564L8.3685 22.8199C8.43634 22.9259 8.52976 23.0131 8.64014 23.0735C8.75052 23.1339 8.87432 23.1656 9.00014 23.1656C9.12597 23.1656 9.24977 23.1339 9.36015 23.0735C9.47053 23.0131 9.56394 22.9259 9.63178 22.8199L15.4987 13.6563C16.5158 12.2765 17.0625 10.6063 17.058 8.89217C17.058 4.44912 13.4433 0.834354 9.00015 0.834354C4.557 0.834353 0.942332 4.44903 0.942332 8.89217C0.937806 10.6064 1.4845 12.2766 2.50172 13.6564V13.6564ZM9.00015 2.33435C12.6161 2.33435 15.558 5.27614 15.558 8.89217C15.5618 10.2941 15.1126 11.6597 14.2773 12.7855C14.2673 12.799 14.2578 12.8128 14.2488 12.8269L9.00014 21.0246L3.75169 12.8269C3.74269 12.8127 3.73319 12.7989 3.72319 12.7855C2.88781 11.6596 2.43855 10.2941 2.44233 8.89217C2.44233 5.27618 5.38421 2.33435 9.00015 2.33435V2.33435Z" fill="#343F5B"/>
<path fill-rule="evenodd" clip-rule="evenodd" d="M9.00024 11.4999C10.381 11.4999 11.5002 10.3806 11.5002 8.99992C11.5002 7.6192 10.381 6.49992 9.00024 6.49992C7.61953 6.49992 6.50024 7.6192 6.50024 8.99992C6.50024 10.3806 7.61953 11.4999 9.00024 11.4999ZM9.00024 12.9999C11.2094 12.9999 13.0002 11.2091 13.0002 8.99992C13.0002 6.79078 11.2094 4.99992 9.00024 4.99992C6.79111 4.99992 5.00024 6.79078 5.00024 8.99992C5.00024 11.2091 6.79111 12.9999 9.00024 12.9999Z" fill="#343F5B"/>
</svg>
