<svg width="18" height="18" viewBox="0 0 18 18" xmlns="http://www.w3.org/2000/svg">
<path d="M15.1875 1.96875H13.2188V3.09375H14.9062V16.3125H3.09375V3.09375H4.78125V1.96875H2.8125C2.5888 1.96901 2.37434 2.05799 2.21617 2.21617C2.05799 2.37434 1.96901 2.5888 1.96875 2.8125V16.5938C1.96901 16.8174 2.05799 17.0319 2.21617 17.1901C2.37434 17.3483 2.5888 17.4372 2.8125 17.4375H15.1875C15.4112 17.4372 15.6257 17.3483 15.7838 17.1901C15.942 17.0319 16.031 16.8174 16.0312 16.5938V2.8125C16.031 2.5888 15.942 2.37434 15.7838 2.21617C15.6257 2.05799 15.4112 1.96901 15.1875 1.96875Z" />
<path d="M6.75 4.92188H11.25C11.4737 4.92161 11.6882 4.83264 11.8463 4.67446C12.0045 4.51628 12.0935 4.30182 12.0938 4.07812V0.5625H5.90625V4.07812C5.90651 4.30182 5.99549 4.51628 6.15367 4.67446C6.31184 4.83264 6.5263 4.92161 6.75 4.92188ZM7.03125 1.6875H10.9688V3.79688H7.03125V1.6875Z" />
</svg>
