<svg width="14" height="14" viewBox="0 0 14 14" fill="none" xmlns="http://www.w3.org/2000/svg">
<path fill-rule="evenodd" clip-rule="evenodd" d="M1.83988 0.68137C1.9875 0.533735 2.16482 0.419176 2.36009 0.345293C2.55536 0.27141 2.7641 0.239892 2.97248 0.252831C3.18085 0.265769 3.38409 0.322867 3.56872 0.420338C3.75334 0.517809 3.91513 0.653424 4.04336 0.818187L5.55644 2.76423C5.83458 3.12067 5.93269 3.58603 5.82287 4.02438L5.36112 5.87231C5.3371 5.9682 5.33833 6.06867 5.36467 6.16394C5.39101 6.25922 5.44158 6.34605 5.51144 6.41598L7.58529 8.48893C7.65522 8.55879 7.74205 8.60936 7.83733 8.6357C7.9326 8.66204 8.03307 8.66327 8.12896 8.63925L9.97599 8.17749C10.1926 8.12339 10.4187 8.11926 10.6372 8.16542C10.8557 8.21157 11.0608 8.30681 11.237 8.44393L13.1831 9.95701C13.8825 10.5007 13.9473 11.5349 13.3208 12.1605L12.4477 13.0336C11.8239 13.6574 10.8905 13.9319 10.0201 13.6259C7.79358 12.8422 5.77207 11.5673 4.10546 9.89581C2.43363 8.22929 1.15845 6.20777 0.374502 3.98118C0.0684643 3.11077 0.342998 2.17735 0.966775 1.55268L1.83988 0.68047V0.68137Z" fill="#222631"/>
</svg>
