<svg width="24" height="24" viewBox="0 0 24 24"  xmlns="http://www.w3.org/2000/svg">
<path d="M3.75 4.5H20.25V6H3.75V4.5Z" />
<path d="M9.49316 11.25H20.2505V12.75H9.49316V11.25Z" />
<path d="M16.0146 18H20.2499V19.5H16.0146V18Z" />
</svg>
