<svg width="32" height="32" viewBox="0 0 32 32" xmlns="http://www.w3.org/2000/svg">
<circle cx="16" cy="16" r="16" />
<path d="M25.579 10.855C25.719 10.39 25.579 10.049 24.917 10.049H22.724C22.166 10.049 21.911 10.344 21.771 10.668C21.771 10.668 20.656 13.387 19.076 15.15C18.566 15.663 18.333 15.825 18.055 15.825C17.916 15.825 17.714 15.663 17.714 15.198V10.855C17.714 10.297 17.553 10.049 17.088 10.049H13.642C13.294 10.049 13.084 10.307 13.084 10.553C13.084 11.081 13.874 11.203 13.955 12.691V15.919C13.955 16.626 13.828 16.755 13.548 16.755C12.805 16.755 10.997 14.026 9.924 10.902C9.715 10.295 9.504 10.05 8.944 10.05H6.752C6.125 10.05 6 10.345 6 10.669C6 11.251 6.743 14.131 9.461 17.94C11.273 20.541 13.824 21.951 16.148 21.951C17.541 21.951 17.713 21.638 17.713 21.098V19.132C17.713 18.506 17.846 18.38 18.287 18.38C18.611 18.38 19.169 18.544 20.47 19.797C21.956 21.283 22.202 21.95 23.037 21.95H25.229C25.855 21.95 26.168 21.637 25.988 21.019C25.791 20.404 25.081 19.509 24.139 18.45C23.627 17.846 22.862 17.196 22.629 16.871C22.304 16.452 22.398 16.267 22.629 15.895C22.63 15.896 25.301 12.134 25.579 10.855Z" fill="white"/>
</svg>
